^C:\USERS\АЛЕКСАНДР\DESKTOP\SB\PROJECT1\HELPERS.CPP|C:\USERS\АЛЕКСАНДР\DESKTOP\SB\PROJECT1\MAIN.CPP
C:\USERS\Александр\DESKTOP\SB\PROJECT1\X64\DEBUG\VC143.PDB
C:\USERS\Александр\DESKTOP\SB\PROJECT1\X64\DEBUG\VC143.IDB
C:\USERS\Александр\DESKTOP\SB\PROJECT1\X64\DEBUG\MAIN.OBJ
C:\USERS\Александр\DESKTOP\SB\PROJECT1\X64\DEBUG\HELPERS.OBJ
^C:\USERS\АЛЕКСАНДР\DESKTOP\SB\PROJECT1\16HW.CPP|C:\USERS\АЛЕКСАНДР\DESKTOP\SB\PROJECT1\HELPERS.CPP|C:\USERS\АЛЕКСАНДР\DESKTOP\SB\PROJECT1\HW17.CPP|C:\USERS\АЛЕКСАНДР\DESKTOP\SB\PROJECT1\MAIN.CPP
C:\USERS\Александр\DESKTOP\SB\PROJECT1\X64\DEBUG\VC143.PDB
C:\USERS\Александр\DESKTOP\SB\PROJECT1\X64\DEBUG\VC143.IDB
C:\USERS\Александр\DESKTOP\SB\PROJECT1\X64\DEBUG\MAIN.OBJ
C:\USERS\Александр\DESKTOP\SB\PROJECT1\X64\DEBUG\HELPERS.OBJ
C:\USERS\Александр\DESKTOP\SB\PROJECT1\X64\DEBUG\HW17.OBJ
C:\USERS\Александр\DESKTOP\SB\PROJECT1\X64\DEBUG\16HW.OBJ
^C:\USERS\АЛЕКСАНДР\DESKTOP\SB\PROJECT1\16HW.CPP|C:\USERS\АЛЕКСАНДР\DESKTOP\SB\PROJECT1\MAIN.CPP
C:\USERS\Александр\DESKTOP\SB\PROJECT1\X64\DEBUG\VC143.PDB
C:\USERS\Александр\DESKTOP\SB\PROJECT1\X64\DEBUG\VC143.IDB
C:\USERS\Александр\DESKTOP\SB\PROJECT1\X64\DEBUG\MAIN.OBJ
C:\USERS\Александр\DESKTOP\SB\PROJECT1\X64\DEBUG\16HW.OBJ
^C:\USERS\АЛЕКСАНДР\DESKTOP\SB\PROJECT1\16HW.CPP|C:\USERS\АЛЕКСАНДР\DESKTOP\SB\PROJECT1\HELPERS.CPP|C:\USERS\АЛЕКСАНДР\DESKTOP\SB\PROJECT1\HW17.CPP|C:\USERS\АЛЕКСАНДР\DESKTOP\SB\PROJECT1\HW18.CPP|C:\USERS\АЛЕКСАНДР\DESKTOP\SB\PROJECT1\MAIN.CPP
C:\USERS\Александр\DESKTOP\SB\PROJECT1\X64\DEBUG\VC143.PDB
C:\USERS\Александр\DESKTOP\SB\PROJECT1\X64\DEBUG\VC143.IDB
C:\USERS\Александр\DESKTOP\SB\PROJECT1\X64\DEBUG\MAIN.OBJ
C:\USERS\Александр\DESKTOP\SB\PROJECT1\X64\DEBUG\HW17.OBJ
C:\USERS\Александр\DESKTOP\SB\PROJECT1\X64\DEBUG\HELPERS.OBJ
C:\USERS\Александр\DESKTOP\SB\PROJECT1\X64\DEBUG\16HW.OBJ
^C:\USERS\АЛЕКСАНДР\DESKTOP\SB\PROJECT1\HW18.CPP|C:\USERS\АЛЕКСАНДР\DESKTOP\SB\PROJECT1\MAIN.CPP
C:\USERS\Александр\DESKTOP\SB\PROJECT1\X64\DEBUG\VC143.PDB
C:\USERS\Александр\DESKTOP\SB\PROJECT1\X64\DEBUG\VC143.IDB
C:\USERS\Александр\DESKTOP\SB\PROJECT1\X64\DEBUG\MAIN.OBJ
^C:\USERS\АЛЕКСАНДР\DESKTOP\SB\PROJECT1\16HW.CPP|C:\USERS\АЛЕКСАНДР\DESKTOP\SB\PROJECT1\HELPERS.CPP|C:\USERS\АЛЕКСАНДР\DESKTOP\SB\PROJECT1\HW17.CPP|C:\USERS\АЛЕКСАНДР\DESKTOP\SB\PROJECT1\HW18.CPP|C:\USERS\АЛЕКСАНДР\DESKTOP\SB\PROJECT1\HW19.CPP|C:\USERS\АЛЕКСАНДР\DESKTOP\SB\PROJECT1\MAIN.CPP
C:\USERS\Александр\DESKTOP\SB\PROJECT1\X64\DEBUG\VC143.PDB
C:\USERS\Александр\DESKTOP\SB\PROJECT1\X64\DEBUG\VC143.IDB
C:\USERS\Александр\DESKTOP\SB\PROJECT1\X64\DEBUG\MAIN.OBJ
C:\USERS\Александр\DESKTOP\SB\PROJECT1\X64\DEBUG\HW19.OBJ
C:\USERS\Александр\DESKTOP\SB\PROJECT1\X64\DEBUG\HW18.OBJ
C:\USERS\Александр\DESKTOP\SB\PROJECT1\X64\DEBUG\HW17.OBJ
C:\USERS\Александр\DESKTOP\SB\PROJECT1\X64\DEBUG\HELPERS.OBJ
C:\USERS\Александр\DESKTOP\SB\PROJECT1\X64\DEBUG\16HW.OBJ
^C:\USERS\АЛЕКСАНДР\DESKTOP\SB\PROJECT1\16HW.CPP
C:\USERS\АЛЕКСАНДР\DESKTOP\SB\PROJECT1\X64\DEBUG\VC143.PDB
^C:\USERS\АЛЕКСАНДР\DESKTOP\SB\PROJECT1\HELPERS.CPP
C:\USERS\АЛЕКСАНДР\DESKTOP\SB\PROJECT1\X64\DEBUG\VC143.PDB
^C:\USERS\АЛЕКСАНДР\DESKTOP\SB\PROJECT1\HW17.CPP
C:\USERS\АЛЕКСАНДР\DESKTOP\SB\PROJECT1\X64\DEBUG\VC143.PDB
^C:\USERS\АЛЕКСАНДР\DESKTOP\SB\PROJECT1\HW18.CPP
C:\USERS\АЛЕКСАНДР\DESKTOP\SB\PROJECT1\X64\DEBUG\VC143.PDB
^C:\USERS\АЛЕКСАНДР\DESKTOP\SB\PROJECT1\MAIN.CPP
C:\USERS\АЛЕКСАНДР\DESKTOP\SB\PROJECT1\X64\DEBUG\VC143.PDB
^C:\USERS\АЛЕКСАНДР\DESKTOP\SB\PROJECT1\HW19.CPP
C:\USERS\Александр\DESKTOP\SB\PROJECT1\X64\DEBUG\VC143.PDB
C:\USERS\Александр\DESKTOP\SB\PROJECT1\X64\DEBUG\VC143.IDB
C:\USERS\Александр\DESKTOP\SB\PROJECT1\X64\DEBUG\HW19.OBJ
