^C:\USERS\АЛЕКСАНДР\DESKTOP\SB\PROJECT1\X64\DEBUG\16HW.OBJ|C:\USERS\АЛЕКСАНДР\DESKTOP\SB\PROJECT1\X64\DEBUG\HELPERS.OBJ|C:\USERS\АЛЕКСАНДР\DESKTOP\SB\PROJECT1\X64\DEBUG\HW17.OBJ|C:\USERS\АЛЕКСАНДР\DESKTOP\SB\PROJECT1\X64\DEBUG\HW18.OBJ|C:\USERS\АЛЕКСАНДР\DESKTOP\SB\PROJECT1\X64\DEBUG\HW19.OBJ|C:\USERS\АЛЕКСАНДР\DESKTOP\SB\PROJECT1\X64\DEBUG\MAIN.OBJ
C:\USERS\Александр\DESKTOP\SB\PROJECT1\X64\DEBUG\PROJECT1.EXE
C:\USERS\Александр\DESKTOP\SB\PROJECT1\X64\DEBUG\PROJECT1.ILK
C:\USERS\Александр\DESKTOP\SB\PROJECT1\X64\DEBUG\PROJECT1.PDB
